{
  "configurations": [
    {
      "name": "Win32",
      "includePath": [
        "${workspaceFolder}/**"
      ],
      "defines": [
        "_DEBUG",
        "UNICODE",
        "_UNICODE"
      ],
      "windowsSdkVersion": "10.0.19041.0",
      "cStandard": "c17",
      "configurationProvider": "ms-vscode.cmake-tools",
      "compilerPath": "C:/Program Files/LLVM/bin/clang++.exe",
      "intelliSenseMode": "windows-clang-x64",
      "cppStandard": "c++14"
    }
  ],
  "version": 4
}